…
2

Currently dep_time and sched_dep_time are convenient to look at, but
hard to compute with because they’re not really continuous numbers.
Convert them to a more convenient representation of number of minutes
since midnight.

``` r
flights%>%
  mutate(dep_time_in_minute=60*(dep_time%/%100)+dep_time%%100,
         sched_dep_time_in_minute=60*(sched_dep_time%/%100)+sched_dep_time%%100)
```

    ## # A tibble: 336,776 x 21
    ##     year month   day dep_time sched_dep_time dep_delay arr_time sched_arr_time
    ##    <int> <int> <int>    <int>          <int>     <dbl>    <int>          <int>
    ##  1  2013     1     1      517            515         2      830            819
    ##  2  2013     1     1      533            529         4      850            830
    ##  3  2013     1     1      542            540         2      923            850
    ##  4  2013     1     1      544            545        -1     1004           1022
    ##  5  2013     1     1      554            600        -6      812            837
    ##  6  2013     1     1      554            558        -4      740            728
    ##  7  2013     1     1      555            600        -5      913            854
    ##  8  2013     1     1      557            600        -3      709            723
    ##  9  2013     1     1      557            600        -3      838            846
    ## 10  2013     1     1      558            600        -2      753            745
    ## # ... with 336,766 more rows, and 13 more variables: arr_delay <dbl>,
    ## #   carrier <chr>, flight <int>, tailnum <chr>, origin <chr>, dest <chr>,
    ## #   air_time <dbl>, distance <dbl>, hour <dbl>, minute <dbl>, time_hour <dttm>,
    ## #   dep_time_in_minute <dbl>, sched_dep_time_in_minute <dbl>
…
    ## `summarise()` has grouped output by 'month'. You can override using the
    ## `.groups` argument.

``` r
df  
```

    ## # A tibble: 365 x 5
    ## # Groups:   month [12]
    ##    month   day number proportion avg_delay
    ##    <int> <int>  <int>      <dbl>     <dbl>
    ##  1     1     1      4    0.00475     0.418
    ##  2     1     2      8    0.00848     0.477
    ##  3     1     3     10    0.0109      0.452
    ##  4     1     4      6    0.00656     0.427
    ##  5     1     5      3    0.00417     0.372
    ##  6     1     6      1    0.00120     0.425
    ##  7     1     7      3    0.00322     0.317
    ##  8     1     8      4    0.00445     0.271
    ##  9     1     9      5    0.00554     0.228
    ## 10     1    10      3    0.00322     0.205
    ## # ... with 355 more rows
…
